<mxfile host="app.diagrams.net" modified="2020-08-29T20:04:46.605Z" agent="5.0 (Windows)" etag="QFa4omsXfh4IA_FH-MTj" version="13.6.5" type="gitlab">
  <diagram id="3IFWqPa6JDlAv9Y5EbGj" name="Page-1">
    <mxGraphModel dx="1673" dy="898" grid="1" gridSize="10" guides="1" tooltips="1" connect="1" arrows="1" fold="1" page="0" pageScale="1" pageWidth="900" pageHeight="1600" math="0" shadow="0">
      <root>
        <mxCell id="0" />
        <mxCell id="1" parent="0" />
        <mxCell id="FwoKN0q9Lt-AXY110CAx-2" value="" style="rounded=0;whiteSpace=wrap;html=1;strokeColor=none;fontColor=#757575;fillColor=#FAFAFA;" parent="1" vertex="1">
          <mxGeometry width="1050" height="60" as="geometry" />
        </mxCell>
        <mxCell id="FwoKN0q9Lt-AXY110CAx-3" value="&lt;div style=&quot;font-size: 29px;&quot;&gt;Logo&lt;/div&gt;" style="text;html=1;strokeColor=none;fillColor=none;align=center;verticalAlign=middle;whiteSpace=wrap;rounded=0;fontFamily=Comic Sans MS;strokeWidth=1;fontSize=29;fontColor=#607d8b;" parent="1" vertex="1">
          <mxGeometry x="75" y="15" width="90" height="30" as="geometry" />
        </mxCell>
        <mxCell id="FwoKN0q9Lt-AXY110CAx-4" value="Soporte Técnico" style="text;html=1;strokeColor=none;fillColor=none;align=center;verticalAlign=middle;whiteSpace=wrap;rounded=0;fontFamily=Verdana;fontSize=15;fontStyle=1;fontColor=#607D8B;" parent="1" vertex="1">
          <mxGeometry x="487" y="20" width="140" height="20" as="geometry" />
        </mxCell>
        <mxCell id="FwoKN0q9Lt-AXY110CAx-6" value="FAQ" style="text;html=1;strokeColor=none;fillColor=none;align=center;verticalAlign=middle;whiteSpace=wrap;rounded=0;fontFamily=Verdana;fontSize=15;fontStyle=1;fontColor=#607D8B;" parent="1" vertex="1">
          <mxGeometry x="645" y="20" width="40" height="20" as="geometry" />
        </mxCell>
        <mxCell id="FwoKN0q9Lt-AXY110CAx-10" value="" style="rounded=0;whiteSpace=wrap;html=1;strokeWidth=1;fontFamily=Verdana;fontSize=15;strokeColor=none;fontColor=#757575;fillColor=#FAFAFA;" parent="1" vertex="1">
          <mxGeometry y="150" width="1050" height="700" as="geometry" />
        </mxCell>
        <mxCell id="FwoKN0q9Lt-AXY110CAx-11" value="" style="rounded=0;whiteSpace=wrap;html=1;strokeWidth=1;fontFamily=Verdana;fontSize=15;strokeColor=none;fontColor=#311B92;fillColor=#880e4f;" parent="1" vertex="1">
          <mxGeometry y="60" width="1050" height="90" as="geometry" />
        </mxCell>
        <mxCell id="fQXfn63x7AZSeW8X1jDT-1" value="Help Desk a la orden para ti" style="text;html=1;strokeColor=none;fillColor=none;align=left;verticalAlign=middle;whiteSpace=wrap;rounded=0;fontSize=21;fontColor=#FFFFFF;" parent="1" vertex="1">
          <mxGeometry x="75" y="80" width="190" height="50" as="geometry" />
        </mxCell>
        <mxCell id="fQXfn63x7AZSeW8X1jDT-2" value="&lt;div&gt;Contactos&lt;/div&gt;" style="text;html=1;strokeColor=none;fillColor=none;align=center;verticalAlign=middle;whiteSpace=wrap;rounded=0;fontFamily=Verdana;fontSize=15;fontStyle=1;labelBackgroundColor=none;fontColor=#607d8b;" parent="1" vertex="1">
          <mxGeometry x="701" y="20" width="92" height="20" as="geometry" />
        </mxCell>
        <mxCell id="fQXfn63x7AZSeW8X1jDT-5" value="" style="rounded=0;whiteSpace=wrap;html=1;fontSize=21;fontColor=#607d8b;align=left;strokeColor=none;fillColor=#212121;" parent="1" vertex="1">
          <mxGeometry y="790" width="1050" height="60" as="geometry" />
        </mxCell>
        <mxCell id="fQXfn63x7AZSeW8X1jDT-7" value="" style="rounded=0;whiteSpace=wrap;html=1;fontSize=21;fontColor=#607d8b;align=left;strokeColor=none;fillColor=#AD1457;" parent="1" vertex="1">
          <mxGeometry x="637" y="210" width="340" height="60" as="geometry" />
        </mxCell>
        <mxCell id="fQXfn63x7AZSeW8X1jDT-8" value="Últimas preguntas agregadas:" style="text;html=1;strokeColor=none;fillColor=none;align=center;verticalAlign=middle;whiteSpace=wrap;rounded=0;fontSize=21;fontColor=#FFFFFF;" parent="1" vertex="1">
          <mxGeometry x="647" y="230" width="290" height="20" as="geometry" />
        </mxCell>
        <mxCell id="fQXfn63x7AZSeW8X1jDT-9" value="" style="rounded=1;whiteSpace=wrap;html=1;gradientColor=none;fontSize=21;align=left;strokeColor=none;fontColor=#d81b60;fillColor=#D81B60;" parent="1" vertex="1">
          <mxGeometry x="637" y="300" width="340" height="60" as="geometry" />
        </mxCell>
        <mxCell id="fQXfn63x7AZSeW8X1jDT-13" value="&lt;font&gt;¿Pregunta 1?...&lt;/font&gt;" style="text;html=1;strokeColor=none;fillColor=none;align=center;verticalAlign=middle;whiteSpace=wrap;rounded=0;fontSize=21;labelBackgroundColor=none;fontColor=#FAFAFA;" parent="1" vertex="1">
          <mxGeometry x="647" y="320" width="150" height="20" as="geometry" />
        </mxCell>
        <mxCell id="fQXfn63x7AZSeW8X1jDT-16" value="" style="rounded=1;whiteSpace=wrap;html=1;gradientColor=none;fontSize=21;fontColor=#FFFFFF;align=left;strokeColor=none;fillColor=#d81b60;" parent="1" vertex="1">
          <mxGeometry x="636" y="390" width="340" height="60" as="geometry" />
        </mxCell>
        <mxCell id="fQXfn63x7AZSeW8X1jDT-17" value="¿Pregunta 2?..." style="text;html=1;strokeColor=none;align=center;verticalAlign=middle;whiteSpace=wrap;rounded=0;fontSize=21;fillColor=#d81b60;fontColor=#FAFAFA;" parent="1" vertex="1">
          <mxGeometry x="647" y="410" width="150" height="20" as="geometry" />
        </mxCell>
        <mxCell id="fQXfn63x7AZSeW8X1jDT-19" value="" style="rounded=1;whiteSpace=wrap;html=1;gradientColor=none;fontSize=21;fontColor=#FFFFFF;align=left;strokeColor=none;fillColor=#d81b60;" parent="1" vertex="1">
          <mxGeometry x="637" y="480" width="340" height="60" as="geometry" />
        </mxCell>
        <mxCell id="fQXfn63x7AZSeW8X1jDT-20" value="¿Pregunta 3?..." style="text;html=1;strokeColor=none;align=center;verticalAlign=middle;whiteSpace=wrap;rounded=0;fontSize=21;fontColor=#FAFAFA;" parent="1" vertex="1">
          <mxGeometry x="647" y="500" width="150" height="20" as="geometry" />
        </mxCell>
        <mxCell id="fQXfn63x7AZSeW8X1jDT-22" value="" style="rounded=1;whiteSpace=wrap;html=1;gradientColor=none;fontSize=21;fontColor=#FFFFFF;align=left;strokeColor=none;fillColor=#d81b60;" parent="1" vertex="1">
          <mxGeometry x="637" y="570" width="340" height="60" as="geometry" />
        </mxCell>
        <mxCell id="fQXfn63x7AZSeW8X1jDT-23" value="¿Pregunta 4?..." style="text;html=1;strokeColor=none;align=center;verticalAlign=middle;whiteSpace=wrap;rounded=0;fontSize=21;fillColor=#d81b60;fontColor=#FAFAFA;" parent="1" vertex="1">
          <mxGeometry x="647" y="590" width="150" height="20" as="geometry" />
        </mxCell>
        <mxCell id="fQXfn63x7AZSeW8X1jDT-35" value="" style="rounded=0;whiteSpace=wrap;html=1;glass=0;labelBackgroundColor=none;fillColor=none;gradientColor=none;fontSize=21;fontColor=#FAFAFA;align=left;strokeColor=#AD1457;strokeWidth=3;perimeterSpacing=0;absoluteArcSize=0;" parent="1" vertex="1">
          <mxGeometry x="90" y="210" width="430" height="250" as="geometry" />
        </mxCell>
        <mxCell id="fQXfn63x7AZSeW8X1jDT-36" value="" style="rounded=0;whiteSpace=wrap;html=1;glass=0;labelBackgroundColor=none;strokeColor=#00796b;gradientColor=none;fontSize=21;fontColor=#FAFAFA;align=left;fillColor=#AD1457;" parent="1" vertex="1">
          <mxGeometry x="90" y="210" width="430" height="60" as="geometry" />
        </mxCell>
        <mxCell id="fQXfn63x7AZSeW8X1jDT-37" value="¿Qué es Help Desk?" style="text;html=1;strokeColor=none;fillColor=none;align=center;verticalAlign=middle;whiteSpace=wrap;rounded=0;glass=0;labelBackgroundColor=none;fontSize=21;fontColor=#FAFAFA;" parent="1" vertex="1">
          <mxGeometry x="157.5" y="230" width="295" height="20" as="geometry" />
        </mxCell>
        <mxCell id="fQXfn63x7AZSeW8X1jDT-38" value="Help Desk es un proyecto enfocado a cubrir las consultas por parte de sus usuarios" style="text;html=1;strokeColor=none;fillColor=none;align=center;verticalAlign=middle;whiteSpace=wrap;rounded=0;glass=0;labelBackgroundColor=none;fontSize=21;fontColor=#757575;" parent="1" vertex="1">
          <mxGeometry x="108" y="290" width="402" height="150" as="geometry" />
        </mxCell>
        <mxCell id="fQXfn63x7AZSeW8X1jDT-39" value="" style="rounded=0;whiteSpace=wrap;html=1;glass=0;labelBackgroundColor=none;fillColor=none;gradientColor=none;fontSize=21;fontColor=#FAFAFA;align=left;strokeColor=#AD1457;strokeWidth=3;perimeterSpacing=0;absoluteArcSize=0;" parent="1" vertex="1">
          <mxGeometry x="90" y="482" width="430" height="250" as="geometry" />
        </mxCell>
        <mxCell id="fQXfn63x7AZSeW8X1jDT-40" value="" style="rounded=0;whiteSpace=wrap;html=1;glass=0;labelBackgroundColor=none;strokeColor=#00796b;gradientColor=none;fontSize=21;fontColor=#FAFAFA;align=left;fillColor=#AD1457;" parent="1" vertex="1">
          <mxGeometry x="90" y="482" width="430" height="60" as="geometry" />
        </mxCell>
        <mxCell id="fQXfn63x7AZSeW8X1jDT-41" value="¿Quiénes somos?" style="text;html=1;strokeColor=none;fillColor=none;align=center;verticalAlign=middle;whiteSpace=wrap;rounded=0;glass=0;labelBackgroundColor=none;fontSize=21;fontColor=#FAFAFA;" parent="1" vertex="1">
          <mxGeometry x="133.75" y="502" width="342.5" height="20" as="geometry" />
        </mxCell>
        <mxCell id="fQXfn63x7AZSeW8X1jDT-42" value="Help Desk ha sido desarrollado por un pequeño grupo de cinco desarrolladores, puedes ayudarnos si gustas." style="text;html=1;strokeColor=none;fillColor=none;align=center;verticalAlign=middle;whiteSpace=wrap;rounded=0;glass=0;labelBackgroundColor=none;fontSize=21;fontColor=#757575;" parent="1" vertex="1">
          <mxGeometry x="108" y="562" width="402" height="150" as="geometry" />
        </mxCell>
        <mxCell id="fQXfn63x7AZSeW8X1jDT-43" value="© 2020 Help Desk | Todos los derechos reservados. Creada con el apoyo de Universidad Don Bosco " style="text;html=1;strokeColor=none;fillColor=none;align=center;verticalAlign=middle;whiteSpace=wrap;rounded=0;glass=0;labelBackgroundColor=none;fontSize=21;fontColor=#fce4ec;" parent="1" vertex="1">
          <mxGeometry x="117.5" y="810" width="815" height="20" as="geometry" />
        </mxCell>
        <mxCell id="xa_UKC4JqOjLELwl2FOp-2" value="&lt;div&gt;Login&lt;/div&gt;" style="text;html=1;strokeColor=none;fillColor=none;align=center;verticalAlign=middle;whiteSpace=wrap;rounded=0;fontFamily=Verdana;fontSize=15;fontStyle=1;labelBackgroundColor=none;fontColor=#607d8b;" vertex="1" parent="1">
          <mxGeometry x="807" y="20" width="60" height="20" as="geometry" />
        </mxCell>
        <mxCell id="xa_UKC4JqOjLELwl2FOp-3" value="" style="rounded=1;whiteSpace=wrap;html=1;fillColor=#D81B60;fontColor=#fafafa;strokeColor=none;" vertex="1" parent="1">
          <mxGeometry x="890" y="15" width="120" height="30" as="geometry" />
        </mxCell>
        <mxCell id="xa_UKC4JqOjLELwl2FOp-4" value="Registrarse" style="text;html=1;strokeColor=none;fillColor=none;align=center;verticalAlign=middle;whiteSpace=wrap;rounded=0;fontSize=15;fontColor=#FAFAFA;" vertex="1" parent="1">
          <mxGeometry x="900" y="20" width="100" height="20" as="geometry" />
        </mxCell>
      </root>
    </mxGraphModel>
  </diagram>
</mxfile>
