<mxfile host="app.diagrams.net" modified="2020-08-18T15:44:29.648Z" agent="5.0 (Windows)" etag="2Af41RaT1n4cySKKxB5W" version="13.6.2" type="gitlab">
  <diagram id="Uge-gwES2mu1PzshiyT3" name="Page-1">
    <mxGraphModel dx="1422" dy="763" grid="1" gridSize="10" guides="1" tooltips="1" connect="0" arrows="1" fold="1" page="1" pageScale="1" pageWidth="800" pageHeight="900" math="0" shadow="0">
      <root>
        <mxCell id="0" />
        <mxCell id="1" parent="0" />
        <mxCell id="Q2Wpx5Y41Qa05OuMU2Gn-4" value="" style="group" parent="1" vertex="1" connectable="0">
          <mxGeometry x="466" y="361" width="680" height="60" as="geometry" />
        </mxCell>
        <mxCell id="Q2Wpx5Y41Qa05OuMU2Gn-1" value="" style="rounded=0;whiteSpace=wrap;html=1;" parent="Q2Wpx5Y41Qa05OuMU2Gn-4" vertex="1">
          <mxGeometry width="680" height="60" as="geometry" />
        </mxCell>
        <mxCell id="Q2Wpx5Y41Qa05OuMU2Gn-3" value="&lt;font style=&quot;font-size: 20px&quot;&gt;Alza en el índice de ingresos del sector pescadero de la Isla Gaviota. &lt;/font&gt;" style="text;html=1;strokeColor=none;fillColor=none;align=center;verticalAlign=middle;whiteSpace=wrap;rounded=0;" parent="Q2Wpx5Y41Qa05OuMU2Gn-4" vertex="1">
          <mxGeometry x="21.25" y="20" width="637.5" height="20" as="geometry" />
        </mxCell>
        <mxCell id="Q2Wpx5Y41Qa05OuMU2Gn-7" value="" style="group" parent="1" vertex="1" connectable="0">
          <mxGeometry x="361" y="201" width="180" height="60" as="geometry" />
        </mxCell>
        <mxCell id="Q2Wpx5Y41Qa05OuMU2Gn-5" value="" style="rounded=0;whiteSpace=wrap;html=1;" parent="Q2Wpx5Y41Qa05OuMU2Gn-7" vertex="1">
          <mxGeometry width="180" height="60" as="geometry" />
        </mxCell>
        <mxCell id="Q2Wpx5Y41Qa05OuMU2Gn-6" value="Formar interés en una nueva generación de pescadores" style="text;html=1;strokeColor=none;fillColor=none;align=center;verticalAlign=middle;whiteSpace=wrap;rounded=0;" parent="Q2Wpx5Y41Qa05OuMU2Gn-7" vertex="1">
          <mxGeometry y="20" width="180" height="20" as="geometry" />
        </mxCell>
        <mxCell id="Q2Wpx5Y41Qa05OuMU2Gn-10" value="" style="group" parent="1" vertex="1" connectable="0">
          <mxGeometry x="261" y="41" width="182" height="60" as="geometry" />
        </mxCell>
        <mxCell id="Q2Wpx5Y41Qa05OuMU2Gn-9" value="" style="rounded=0;whiteSpace=wrap;html=1;" parent="Q2Wpx5Y41Qa05OuMU2Gn-10" vertex="1">
          <mxGeometry width="182" height="60" as="geometry" />
        </mxCell>
        <mxCell id="Q2Wpx5Y41Qa05OuMU2Gn-8" value="Conservación de técnicas de la pesca artesanal" style="text;html=1;strokeColor=none;fillColor=none;align=center;verticalAlign=middle;whiteSpace=wrap;rounded=0;" parent="Q2Wpx5Y41Qa05OuMU2Gn-10" vertex="1">
          <mxGeometry x="6" y="20" width="170" height="20" as="geometry" />
        </mxCell>
        <mxCell id="Q2Wpx5Y41Qa05OuMU2Gn-20" value="" style="group" parent="1" vertex="1" connectable="0">
          <mxGeometry x="621" y="201" width="160" height="60" as="geometry" />
        </mxCell>
        <mxCell id="Q2Wpx5Y41Qa05OuMU2Gn-19" value="" style="rounded=0;whiteSpace=wrap;html=1;" parent="Q2Wpx5Y41Qa05OuMU2Gn-20" vertex="1">
          <mxGeometry width="160" height="60" as="geometry" />
        </mxCell>
        <mxCell id="Q2Wpx5Y41Qa05OuMU2Gn-18" value="Sostenibilidad en las familias pesqueras" style="text;html=1;strokeColor=none;fillColor=none;align=center;verticalAlign=middle;whiteSpace=wrap;rounded=0;" parent="Q2Wpx5Y41Qa05OuMU2Gn-20" vertex="1">
          <mxGeometry x="15" y="20" width="130" height="20" as="geometry" />
        </mxCell>
        <mxCell id="Q2Wpx5Y41Qa05OuMU2Gn-24" value="" style="group" parent="1" vertex="1" connectable="0">
          <mxGeometry x="461" y="41" width="150" height="60" as="geometry" />
        </mxCell>
        <mxCell id="Q2Wpx5Y41Qa05OuMU2Gn-23" value="" style="rounded=0;whiteSpace=wrap;html=1;" parent="Q2Wpx5Y41Qa05OuMU2Gn-24" vertex="1">
          <mxGeometry width="150" height="60" as="geometry" />
        </mxCell>
        <mxCell id="Q2Wpx5Y41Qa05OuMU2Gn-22" value="Permanencia de la población" style="text;html=1;strokeColor=none;fillColor=none;align=center;verticalAlign=middle;whiteSpace=wrap;rounded=0;" parent="Q2Wpx5Y41Qa05OuMU2Gn-24" vertex="1">
          <mxGeometry x="5" y="20" width="140" height="20" as="geometry" />
        </mxCell>
        <mxCell id="Q2Wpx5Y41Qa05OuMU2Gn-26" style="edgeStyle=orthogonalEdgeStyle;rounded=0;orthogonalLoop=1;jettySize=auto;html=1;entryX=0.5;entryY=1;entryDx=0;entryDy=0;" parent="1" source="Q2Wpx5Y41Qa05OuMU2Gn-5" target="Q2Wpx5Y41Qa05OuMU2Gn-9" edge="1">
          <mxGeometry relative="1" as="geometry" />
        </mxCell>
        <mxCell id="Q2Wpx5Y41Qa05OuMU2Gn-28" style="edgeStyle=orthogonalEdgeStyle;rounded=0;orthogonalLoop=1;jettySize=auto;html=1;entryX=0.5;entryY=1;entryDx=0;entryDy=0;" parent="1" source="Q2Wpx5Y41Qa05OuMU2Gn-5" target="Q2Wpx5Y41Qa05OuMU2Gn-23" edge="1">
          <mxGeometry relative="1" as="geometry" />
        </mxCell>
        <mxCell id="Q2Wpx5Y41Qa05OuMU2Gn-32" value="" style="group" parent="1" vertex="1" connectable="0">
          <mxGeometry x="821" y="201" width="150" height="60" as="geometry" />
        </mxCell>
        <mxCell id="Q2Wpx5Y41Qa05OuMU2Gn-30" value="" style="rounded=0;whiteSpace=wrap;html=1;" parent="Q2Wpx5Y41Qa05OuMU2Gn-32" vertex="1">
          <mxGeometry width="150" height="60" as="geometry" />
        </mxCell>
        <mxCell id="Q2Wpx5Y41Qa05OuMU2Gn-31" value="Aumento del atractivo turístico" style="text;html=1;strokeColor=none;fillColor=none;align=center;verticalAlign=middle;whiteSpace=wrap;rounded=0;" parent="Q2Wpx5Y41Qa05OuMU2Gn-32" vertex="1">
          <mxGeometry x="10" y="20" width="130" height="20" as="geometry" />
        </mxCell>
        <mxCell id="Q2Wpx5Y41Qa05OuMU2Gn-35" value="" style="group" parent="1" vertex="1" connectable="0">
          <mxGeometry x="1021" y="201" width="170" height="60" as="geometry" />
        </mxCell>
        <mxCell id="Q2Wpx5Y41Qa05OuMU2Gn-33" value="" style="rounded=0;whiteSpace=wrap;html=1;" parent="Q2Wpx5Y41Qa05OuMU2Gn-35" vertex="1">
          <mxGeometry width="170" height="60" as="geometry" />
        </mxCell>
        <mxCell id="Q2Wpx5Y41Qa05OuMU2Gn-34" value="Aprobación de las acciones del Ministerio de Agricultura y pesca" style="text;html=1;strokeColor=none;fillColor=none;align=center;verticalAlign=middle;whiteSpace=wrap;rounded=0;" parent="Q2Wpx5Y41Qa05OuMU2Gn-35" vertex="1">
          <mxGeometry x="10" y="20" width="150" height="20" as="geometry" />
        </mxCell>
        <mxCell id="Q2Wpx5Y41Qa05OuMU2Gn-38" value="" style="group" parent="1" vertex="1" connectable="0">
          <mxGeometry x="1046" y="41" width="120" height="60" as="geometry" />
        </mxCell>
        <mxCell id="Q2Wpx5Y41Qa05OuMU2Gn-36" value="" style="rounded=0;whiteSpace=wrap;html=1;" parent="Q2Wpx5Y41Qa05OuMU2Gn-38" vertex="1">
          <mxGeometry width="120" height="60" as="geometry" />
        </mxCell>
        <mxCell id="Q2Wpx5Y41Qa05OuMU2Gn-37" value="Aumento en los votos para el gobierno central" style="text;html=1;strokeColor=none;fillColor=none;align=center;verticalAlign=middle;whiteSpace=wrap;rounded=0;" parent="Q2Wpx5Y41Qa05OuMU2Gn-38" vertex="1">
          <mxGeometry x="15" y="20" width="90" height="20" as="geometry" />
        </mxCell>
        <mxCell id="Q2Wpx5Y41Qa05OuMU2Gn-39" style="edgeStyle=orthogonalEdgeStyle;rounded=0;orthogonalLoop=1;jettySize=auto;html=1;entryX=0.5;entryY=1;entryDx=0;entryDy=0;" parent="1" source="Q2Wpx5Y41Qa05OuMU2Gn-34" target="Q2Wpx5Y41Qa05OuMU2Gn-36" edge="1">
          <mxGeometry relative="1" as="geometry" />
        </mxCell>
        <mxCell id="Q2Wpx5Y41Qa05OuMU2Gn-40" style="edgeStyle=orthogonalEdgeStyle;rounded=0;orthogonalLoop=1;jettySize=auto;html=1;entryX=0.5;entryY=1;entryDx=0;entryDy=0;" parent="1" source="Q2Wpx5Y41Qa05OuMU2Gn-1" target="Q2Wpx5Y41Qa05OuMU2Gn-5" edge="1">
          <mxGeometry relative="1" as="geometry" />
        </mxCell>
        <mxCell id="Q2Wpx5Y41Qa05OuMU2Gn-41" style="edgeStyle=orthogonalEdgeStyle;rounded=0;orthogonalLoop=1;jettySize=auto;html=1;entryX=0.5;entryY=1;entryDx=0;entryDy=0;" parent="1" source="Q2Wpx5Y41Qa05OuMU2Gn-1" target="Q2Wpx5Y41Qa05OuMU2Gn-19" edge="1">
          <mxGeometry relative="1" as="geometry" />
        </mxCell>
        <mxCell id="Q2Wpx5Y41Qa05OuMU2Gn-42" style="edgeStyle=orthogonalEdgeStyle;rounded=0;orthogonalLoop=1;jettySize=auto;html=1;entryX=0.5;entryY=1;entryDx=0;entryDy=0;" parent="1" source="Q2Wpx5Y41Qa05OuMU2Gn-1" target="Q2Wpx5Y41Qa05OuMU2Gn-30" edge="1">
          <mxGeometry relative="1" as="geometry" />
        </mxCell>
        <mxCell id="Q2Wpx5Y41Qa05OuMU2Gn-43" style="edgeStyle=orthogonalEdgeStyle;rounded=0;orthogonalLoop=1;jettySize=auto;html=1;entryX=0.5;entryY=1;entryDx=0;entryDy=0;" parent="1" source="Q2Wpx5Y41Qa05OuMU2Gn-1" target="Q2Wpx5Y41Qa05OuMU2Gn-33" edge="1">
          <mxGeometry relative="1" as="geometry" />
        </mxCell>
        <mxCell id="Q2Wpx5Y41Qa05OuMU2Gn-47" value="" style="group" parent="1" vertex="1" connectable="0">
          <mxGeometry x="84" y="480" width="130" height="60" as="geometry" />
        </mxCell>
        <mxCell id="Q2Wpx5Y41Qa05OuMU2Gn-44" value="" style="rounded=0;whiteSpace=wrap;html=1;" parent="Q2Wpx5Y41Qa05OuMU2Gn-47" vertex="1">
          <mxGeometry width="130" height="60" as="geometry" />
        </mxCell>
        <mxCell id="Q2Wpx5Y41Qa05OuMU2Gn-45" value="Alza de turistas en la isla" style="text;html=1;strokeColor=none;fillColor=none;align=center;verticalAlign=middle;whiteSpace=wrap;rounded=0;" parent="Q2Wpx5Y41Qa05OuMU2Gn-47" vertex="1">
          <mxGeometry x="10" y="20" width="110" height="20" as="geometry" />
        </mxCell>
        <mxCell id="Q2Wpx5Y41Qa05OuMU2Gn-50" value="" style="group" parent="1" vertex="1" connectable="0">
          <mxGeometry x="84" y="640" width="230" height="60" as="geometry" />
        </mxCell>
        <mxCell id="Q2Wpx5Y41Qa05OuMU2Gn-48" value="" style="rounded=0;whiteSpace=wrap;html=1;" parent="Q2Wpx5Y41Qa05OuMU2Gn-50" vertex="1">
          <mxGeometry width="230" height="60" as="geometry" />
        </mxCell>
        <mxCell id="Q2Wpx5Y41Qa05OuMU2Gn-49" value="Mejoras en la comunicación entre los pescadores de la zona norte y sur de la isla" style="text;html=1;strokeColor=none;fillColor=none;align=center;verticalAlign=middle;whiteSpace=wrap;rounded=0;" parent="Q2Wpx5Y41Qa05OuMU2Gn-50" vertex="1">
          <mxGeometry x="15" y="10" width="200" height="40" as="geometry" />
        </mxCell>
        <mxCell id="Q2Wpx5Y41Qa05OuMU2Gn-58" value="" style="group" parent="1" vertex="1" connectable="0">
          <mxGeometry x="339" y="600" width="120" height="60" as="geometry" />
        </mxCell>
        <mxCell id="Q2Wpx5Y41Qa05OuMU2Gn-56" value="" style="rounded=0;whiteSpace=wrap;html=1;" parent="Q2Wpx5Y41Qa05OuMU2Gn-58" vertex="1">
          <mxGeometry width="120" height="60" as="geometry" />
        </mxCell>
        <mxCell id="Q2Wpx5Y41Qa05OuMU2Gn-57" value="Equilibrio costos beneficios" style="text;html=1;strokeColor=none;fillColor=none;align=center;verticalAlign=middle;whiteSpace=wrap;rounded=0;" parent="Q2Wpx5Y41Qa05OuMU2Gn-58" vertex="1">
          <mxGeometry x="7.5" y="20" width="105" height="20" as="geometry" />
        </mxCell>
        <mxCell id="Q2Wpx5Y41Qa05OuMU2Gn-61" value="" style="group" parent="1" vertex="1" connectable="0">
          <mxGeometry x="324" y="480" width="190" height="60" as="geometry" />
        </mxCell>
        <mxCell id="Q2Wpx5Y41Qa05OuMU2Gn-59" value="" style="rounded=0;whiteSpace=wrap;html=1;" parent="Q2Wpx5Y41Qa05OuMU2Gn-61" vertex="1">
          <mxGeometry width="190" height="60" as="geometry" />
        </mxCell>
        <mxCell id="Q2Wpx5Y41Qa05OuMU2Gn-60" value="Alza en las ganancias de las actividades pesqueras" style="text;html=1;strokeColor=none;fillColor=none;align=center;verticalAlign=middle;whiteSpace=wrap;rounded=0;" parent="Q2Wpx5Y41Qa05OuMU2Gn-61" vertex="1">
          <mxGeometry x="7.5" y="20" width="175" height="20" as="geometry" />
        </mxCell>
        <mxCell id="Q2Wpx5Y41Qa05OuMU2Gn-64" value="" style="group" parent="1" vertex="1" connectable="0">
          <mxGeometry x="319" y="720" width="160" height="60" as="geometry" />
        </mxCell>
        <mxCell id="Q2Wpx5Y41Qa05OuMU2Gn-62" value="" style="rounded=0;whiteSpace=wrap;html=1;" parent="Q2Wpx5Y41Qa05OuMU2Gn-64" vertex="1">
          <mxGeometry width="160" height="60" as="geometry" />
        </mxCell>
        <mxCell id="Q2Wpx5Y41Qa05OuMU2Gn-63" value="Compra de lanchas más espaciosas" style="text;html=1;strokeColor=none;fillColor=none;align=center;verticalAlign=middle;whiteSpace=wrap;rounded=0;" parent="Q2Wpx5Y41Qa05OuMU2Gn-64" vertex="1">
          <mxGeometry x="10" y="20" width="140" height="20" as="geometry" />
        </mxCell>
        <mxCell id="Q2Wpx5Y41Qa05OuMU2Gn-66" style="edgeStyle=orthogonalEdgeStyle;rounded=0;orthogonalLoop=1;jettySize=auto;html=1;entryX=0.5;entryY=0;entryDx=0;entryDy=0;" parent="1" source="Q2Wpx5Y41Qa05OuMU2Gn-44" target="Q2Wpx5Y41Qa05OuMU2Gn-48" edge="1">
          <mxGeometry relative="1" as="geometry" />
        </mxCell>
        <mxCell id="Q2Wpx5Y41Qa05OuMU2Gn-67" style="edgeStyle=orthogonalEdgeStyle;rounded=0;orthogonalLoop=1;jettySize=auto;html=1;" parent="1" source="Q2Wpx5Y41Qa05OuMU2Gn-59" target="Q2Wpx5Y41Qa05OuMU2Gn-56" edge="1">
          <mxGeometry relative="1" as="geometry" />
        </mxCell>
        <mxCell id="Q2Wpx5Y41Qa05OuMU2Gn-68" style="edgeStyle=orthogonalEdgeStyle;rounded=0;orthogonalLoop=1;jettySize=auto;html=1;entryX=0.5;entryY=0;entryDx=0;entryDy=0;" parent="1" source="Q2Wpx5Y41Qa05OuMU2Gn-56" target="Q2Wpx5Y41Qa05OuMU2Gn-62" edge="1">
          <mxGeometry relative="1" as="geometry" />
        </mxCell>
        <mxCell id="Q2Wpx5Y41Qa05OuMU2Gn-69" style="edgeStyle=orthogonalEdgeStyle;rounded=0;orthogonalLoop=1;jettySize=auto;html=1;" parent="1" source="Q2Wpx5Y41Qa05OuMU2Gn-1" target="Q2Wpx5Y41Qa05OuMU2Gn-44" edge="1">
          <mxGeometry relative="1" as="geometry">
            <Array as="points">
              <mxPoint x="806" y="450" />
              <mxPoint x="149" y="450" />
            </Array>
          </mxGeometry>
        </mxCell>
        <mxCell id="Q2Wpx5Y41Qa05OuMU2Gn-71" style="edgeStyle=orthogonalEdgeStyle;rounded=0;orthogonalLoop=1;jettySize=auto;html=1;entryX=0.5;entryY=0;entryDx=0;entryDy=0;" parent="1" source="Q2Wpx5Y41Qa05OuMU2Gn-1" target="Q2Wpx5Y41Qa05OuMU2Gn-59" edge="1">
          <mxGeometry relative="1" as="geometry">
            <Array as="points">
              <mxPoint x="806" y="450" />
              <mxPoint x="419" y="450" />
            </Array>
          </mxGeometry>
        </mxCell>
        <mxCell id="Q2Wpx5Y41Qa05OuMU2Gn-74" value="" style="group" parent="1" vertex="1" connectable="0">
          <mxGeometry x="499" y="600" width="120" height="60" as="geometry" />
        </mxCell>
        <mxCell id="Q2Wpx5Y41Qa05OuMU2Gn-72" value="" style="rounded=0;whiteSpace=wrap;html=1;" parent="Q2Wpx5Y41Qa05OuMU2Gn-74" vertex="1">
          <mxGeometry width="120" height="60" as="geometry" />
        </mxCell>
        <mxCell id="Q2Wpx5Y41Qa05OuMU2Gn-73" value="Aumento en el volumen de pesca" style="text;html=1;strokeColor=none;fillColor=none;align=center;verticalAlign=middle;whiteSpace=wrap;rounded=0;" parent="Q2Wpx5Y41Qa05OuMU2Gn-74" vertex="1">
          <mxGeometry x="5" y="20" width="110" height="20" as="geometry" />
        </mxCell>
        <mxCell id="Q2Wpx5Y41Qa05OuMU2Gn-75" style="edgeStyle=orthogonalEdgeStyle;rounded=0;orthogonalLoop=1;jettySize=auto;html=1;entryX=0.5;entryY=0;entryDx=0;entryDy=0;" parent="1" source="Q2Wpx5Y41Qa05OuMU2Gn-59" target="Q2Wpx5Y41Qa05OuMU2Gn-72" edge="1">
          <mxGeometry relative="1" as="geometry">
            <Array as="points">
              <mxPoint x="419" y="570" />
              <mxPoint x="559" y="570" />
            </Array>
          </mxGeometry>
        </mxCell>
        <mxCell id="Q2Wpx5Y41Qa05OuMU2Gn-78" value="" style="group" parent="1" vertex="1" connectable="0">
          <mxGeometry x="499" y="690" width="120" height="60" as="geometry" />
        </mxCell>
        <mxCell id="Q2Wpx5Y41Qa05OuMU2Gn-76" value="" style="rounded=0;whiteSpace=wrap;html=1;" parent="Q2Wpx5Y41Qa05OuMU2Gn-78" vertex="1">
          <mxGeometry width="120" height="60" as="geometry" />
        </mxCell>
        <mxCell id="Q2Wpx5Y41Qa05OuMU2Gn-77" value="Reconstrucción de la fauna marina" style="text;html=1;strokeColor=none;fillColor=none;align=center;verticalAlign=middle;whiteSpace=wrap;rounded=0;" parent="Q2Wpx5Y41Qa05OuMU2Gn-78" vertex="1">
          <mxGeometry x="5" y="20" width="110" height="20" as="geometry" />
        </mxCell>
        <mxCell id="Q2Wpx5Y41Qa05OuMU2Gn-79" style="edgeStyle=orthogonalEdgeStyle;rounded=0;orthogonalLoop=1;jettySize=auto;html=1;entryX=0.5;entryY=0;entryDx=0;entryDy=0;" parent="1" source="Q2Wpx5Y41Qa05OuMU2Gn-72" target="Q2Wpx5Y41Qa05OuMU2Gn-76" edge="1">
          <mxGeometry relative="1" as="geometry" />
        </mxCell>
        <mxCell id="Q2Wpx5Y41Qa05OuMU2Gn-82" value="" style="group" parent="1" vertex="1" connectable="0">
          <mxGeometry x="644" y="480" width="200" height="60" as="geometry" />
        </mxCell>
        <mxCell id="Q2Wpx5Y41Qa05OuMU2Gn-80" value="" style="rounded=0;whiteSpace=wrap;html=1;" parent="Q2Wpx5Y41Qa05OuMU2Gn-82" vertex="1">
          <mxGeometry width="200" height="60" as="geometry" />
        </mxCell>
        <mxCell id="Q2Wpx5Y41Qa05OuMU2Gn-81" value="Trazo de rutas que disminuyan la distancia entre mercados pesqueros" style="text;html=1;strokeColor=none;fillColor=none;align=center;verticalAlign=middle;whiteSpace=wrap;rounded=0;" parent="Q2Wpx5Y41Qa05OuMU2Gn-82" vertex="1">
          <mxGeometry x="10" y="20" width="180" height="20" as="geometry" />
        </mxCell>
        <mxCell id="Q2Wpx5Y41Qa05OuMU2Gn-83" style="edgeStyle=orthogonalEdgeStyle;rounded=0;orthogonalLoop=1;jettySize=auto;html=1;entryX=0.5;entryY=0;entryDx=0;entryDy=0;" parent="1" source="Q2Wpx5Y41Qa05OuMU2Gn-1" target="Q2Wpx5Y41Qa05OuMU2Gn-80" edge="1">
          <mxGeometry relative="1" as="geometry">
            <Array as="points">
              <mxPoint x="806" y="450" />
              <mxPoint x="744" y="450" />
            </Array>
          </mxGeometry>
        </mxCell>
        <mxCell id="Q2Wpx5Y41Qa05OuMU2Gn-86" value="" style="group" parent="1" vertex="1" connectable="0">
          <mxGeometry x="884" y="480" width="155" height="60" as="geometry" />
        </mxCell>
        <mxCell id="Q2Wpx5Y41Qa05OuMU2Gn-84" value="" style="rounded=0;whiteSpace=wrap;html=1;" parent="Q2Wpx5Y41Qa05OuMU2Gn-86" vertex="1">
          <mxGeometry width="155" height="60" as="geometry" />
        </mxCell>
        <mxCell id="Q2Wpx5Y41Qa05OuMU2Gn-85" value="Métodos de pesca actualizados" style="text;html=1;strokeColor=none;fillColor=none;align=center;verticalAlign=middle;whiteSpace=wrap;rounded=0;" parent="Q2Wpx5Y41Qa05OuMU2Gn-86" vertex="1">
          <mxGeometry x="12.5" y="20" width="130" height="20" as="geometry" />
        </mxCell>
        <mxCell id="Q2Wpx5Y41Qa05OuMU2Gn-90" value="" style="group" parent="1" vertex="1" connectable="0">
          <mxGeometry x="784" y="600" width="160" height="60" as="geometry" />
        </mxCell>
        <mxCell id="Q2Wpx5Y41Qa05OuMU2Gn-88" value="" style="rounded=0;whiteSpace=wrap;html=1;" parent="Q2Wpx5Y41Qa05OuMU2Gn-90" vertex="1">
          <mxGeometry width="160" height="60" as="geometry" />
        </mxCell>
        <mxCell id="Q2Wpx5Y41Qa05OuMU2Gn-89" value="Capacitación en técnicas actuales" style="text;html=1;strokeColor=none;fillColor=none;align=center;verticalAlign=middle;whiteSpace=wrap;rounded=0;" parent="Q2Wpx5Y41Qa05OuMU2Gn-90" vertex="1">
          <mxGeometry x="10" y="20" width="140" height="20" as="geometry" />
        </mxCell>
        <mxCell id="Q2Wpx5Y41Qa05OuMU2Gn-94" value="" style="group" parent="1" vertex="1" connectable="0">
          <mxGeometry x="974" y="600" width="130" height="60" as="geometry" />
        </mxCell>
        <mxCell id="Q2Wpx5Y41Qa05OuMU2Gn-91" value="" style="rounded=0;whiteSpace=wrap;html=1;" parent="Q2Wpx5Y41Qa05OuMU2Gn-94" vertex="1">
          <mxGeometry x="5" width="120" height="60" as="geometry" />
        </mxCell>
        <mxCell id="Q2Wpx5Y41Qa05OuMU2Gn-93" value="Nuevos materiales para la pesca" style="text;html=1;strokeColor=none;fillColor=none;align=center;verticalAlign=middle;whiteSpace=wrap;rounded=0;" parent="Q2Wpx5Y41Qa05OuMU2Gn-94" vertex="1">
          <mxGeometry y="20" width="130" height="20" as="geometry" />
        </mxCell>
        <mxCell id="Q2Wpx5Y41Qa05OuMU2Gn-98" value="" style="group" parent="1" vertex="1" connectable="0">
          <mxGeometry x="881.5" y="680" width="160" height="60" as="geometry" />
        </mxCell>
        <mxCell id="Q2Wpx5Y41Qa05OuMU2Gn-95" value="" style="rounded=0;whiteSpace=wrap;html=1;" parent="Q2Wpx5Y41Qa05OuMU2Gn-98" vertex="1">
          <mxGeometry width="160" height="60" as="geometry" />
        </mxCell>
        <mxCell id="Q2Wpx5Y41Qa05OuMU2Gn-96" value="Instruir a una nueva generación de pescadores" style="text;html=1;strokeColor=none;fillColor=none;align=center;verticalAlign=middle;whiteSpace=wrap;rounded=0;" parent="Q2Wpx5Y41Qa05OuMU2Gn-98" vertex="1">
          <mxGeometry x="4" y="20" width="152" height="20" as="geometry" />
        </mxCell>
        <mxCell id="Q2Wpx5Y41Qa05OuMU2Gn-99" style="edgeStyle=orthogonalEdgeStyle;rounded=0;orthogonalLoop=1;jettySize=auto;html=1;" parent="1" source="Q2Wpx5Y41Qa05OuMU2Gn-1" target="Q2Wpx5Y41Qa05OuMU2Gn-84" edge="1">
          <mxGeometry relative="1" as="geometry">
            <Array as="points">
              <mxPoint x="806" y="450" />
              <mxPoint x="962" y="450" />
            </Array>
          </mxGeometry>
        </mxCell>
        <mxCell id="Q2Wpx5Y41Qa05OuMU2Gn-101" style="edgeStyle=orthogonalEdgeStyle;rounded=0;orthogonalLoop=1;jettySize=auto;html=1;" parent="1" source="Q2Wpx5Y41Qa05OuMU2Gn-84" target="Q2Wpx5Y41Qa05OuMU2Gn-95" edge="1">
          <mxGeometry relative="1" as="geometry" />
        </mxCell>
        <mxCell id="Q2Wpx5Y41Qa05OuMU2Gn-102" style="edgeStyle=orthogonalEdgeStyle;rounded=0;orthogonalLoop=1;jettySize=auto;html=1;" parent="1" source="Q2Wpx5Y41Qa05OuMU2Gn-84" target="Q2Wpx5Y41Qa05OuMU2Gn-88" edge="1">
          <mxGeometry relative="1" as="geometry" />
        </mxCell>
        <mxCell id="Q2Wpx5Y41Qa05OuMU2Gn-103" style="edgeStyle=orthogonalEdgeStyle;rounded=0;orthogonalLoop=1;jettySize=auto;html=1;" parent="1" source="Q2Wpx5Y41Qa05OuMU2Gn-84" target="Q2Wpx5Y41Qa05OuMU2Gn-91" edge="1">
          <mxGeometry relative="1" as="geometry" />
        </mxCell>
        <mxCell id="Q2Wpx5Y41Qa05OuMU2Gn-106" value="" style="group" parent="1" vertex="1" connectable="0">
          <mxGeometry x="1124" y="480" width="200" height="60" as="geometry" />
        </mxCell>
        <mxCell id="Q2Wpx5Y41Qa05OuMU2Gn-104" value="" style="rounded=0;whiteSpace=wrap;html=1;" parent="Q2Wpx5Y41Qa05OuMU2Gn-106" vertex="1">
          <mxGeometry width="200" height="60" as="geometry" />
        </mxCell>
        <mxCell id="Q2Wpx5Y41Qa05OuMU2Gn-105" value="Disposición de los técnicos del Ministerio de Agricultura y Pesca" style="text;html=1;strokeColor=none;fillColor=none;align=center;verticalAlign=middle;whiteSpace=wrap;rounded=0;" parent="Q2Wpx5Y41Qa05OuMU2Gn-106" vertex="1">
          <mxGeometry x="15" y="20" width="170" height="20" as="geometry" />
        </mxCell>
        <mxCell id="Q2Wpx5Y41Qa05OuMU2Gn-109" value="" style="group" parent="1" vertex="1" connectable="0">
          <mxGeometry x="1364" y="480" width="150" height="60" as="geometry" />
        </mxCell>
        <mxCell id="Q2Wpx5Y41Qa05OuMU2Gn-107" value="" style="rounded=0;whiteSpace=wrap;html=1;" parent="Q2Wpx5Y41Qa05OuMU2Gn-109" vertex="1">
          <mxGeometry width="150" height="60" as="geometry" />
        </mxCell>
        <mxCell id="Q2Wpx5Y41Qa05OuMU2Gn-108" value="Generar ofertas de mercado que logren competir con otras islas" style="text;html=1;strokeColor=none;fillColor=none;align=center;verticalAlign=middle;whiteSpace=wrap;rounded=0;" parent="Q2Wpx5Y41Qa05OuMU2Gn-109" vertex="1">
          <mxGeometry x="5" y="20" width="140" height="20" as="geometry" />
        </mxCell>
        <mxCell id="Q2Wpx5Y41Qa05OuMU2Gn-110" style="edgeStyle=orthogonalEdgeStyle;rounded=0;orthogonalLoop=1;jettySize=auto;html=1;" parent="1" source="Q2Wpx5Y41Qa05OuMU2Gn-1" target="Q2Wpx5Y41Qa05OuMU2Gn-104" edge="1">
          <mxGeometry relative="1" as="geometry">
            <Array as="points">
              <mxPoint x="806" y="450" />
              <mxPoint x="1224" y="450" />
            </Array>
          </mxGeometry>
        </mxCell>
        <mxCell id="Q2Wpx5Y41Qa05OuMU2Gn-111" style="edgeStyle=orthogonalEdgeStyle;rounded=0;orthogonalLoop=1;jettySize=auto;html=1;" parent="1" source="Q2Wpx5Y41Qa05OuMU2Gn-1" target="Q2Wpx5Y41Qa05OuMU2Gn-107" edge="1">
          <mxGeometry relative="1" as="geometry">
            <Array as="points">
              <mxPoint x="806" y="450" />
              <mxPoint x="1439" y="450" />
            </Array>
          </mxGeometry>
        </mxCell>
        <mxCell id="Q2Wpx5Y41Qa05OuMU2Gn-113" style="edgeStyle=orthogonalEdgeStyle;rounded=0;orthogonalLoop=1;jettySize=auto;html=1;entryX=1.013;entryY=0.311;entryDx=0;entryDy=0;entryPerimeter=0;" parent="1" source="Q2Wpx5Y41Qa05OuMU2Gn-19" target="Q2Wpx5Y41Qa05OuMU2Gn-23" edge="1">
          <mxGeometry relative="1" as="geometry">
            <Array as="points">
              <mxPoint x="701" y="60" />
            </Array>
          </mxGeometry>
        </mxCell>
      </root>
    </mxGraphModel>
  </diagram>
</mxfile>
